[
  {
    "id": 1,
    "name": "Rexona Men",
    "price": "IDR 20.000",
    "stock": "50"
  },
  {
    "id": 2,
    "name": "Kapur Bagus",
    "price": "IDR 15.000",
    "stock": "20"
  },
  {
    "id": 3,
    "name": "Rexona Men",
    "price": "IDR 20.000",
    "stock": "50"
  },
  {
    "id": 4,
    "name": "Kapur Bagus",
    "price": "IDR 15.000",
    "stock": "20"
  },
  {
    "id": 5,
    "name": "Rexona Men",
    "price": "IDR 20.000",
    "stock": "50"
  },
  {
    "id": 6,
    "name": "Kapur Bagus",
    "price": "IDR 15.000",
    "stock": "20"
  },
  {
    "id": 7,
    "name": "Rexona Men",
    "price": "IDR 20.000",
    "stock": "50"
  },
  {
    "id": 8,
    "name": "Kapur Bagus",
    "price": "IDR 15.000",
    "stock": "20"
  },
  {
    "id": 9,
    "name": "Rexona Men",
    "price": "IDR 20.000",
    "stock": "50"
  },
  {
    "id": 10,
    "name": "Kapur Bagus",
    "price": "IDR 15.000",
    "stock": "20"
  }
]